\relax 
\@writefile{lot}{\contentsline {table}{\numberline {1}{\ignorespaces Execution time of iterative and recursive exponentiation code assuming different branch prediction schemes; EXPN 2,000}}{1}}
\@writefile{lot}{\contentsline {table}{\numberline {2}{\ignorespaces Execution time of iterative and recursive exponentiation code assuming different branch prediction schemes; EXPN 20,000}}{2}}
\@writefile{lot}{\contentsline {table}{\numberline {3}{\ignorespaces Execution time of iterative and recursive exponentiation code assuming different branch prediction schemes; EXPN 200,000}}{2}}
\bibstyle{apalike}
\bibdata{sample}
\@writefile{lot}{\contentsline {table}{\numberline {4}{\ignorespaces Execution time of iterative and recursive exponentiation code assuming modifiied 2-level predictor; EXPN 200,000}}{4}}
