\relax 
\@writefile{lot}{\contentsline {table}{\numberline {1}{\ignorespaces Execution time of different cache organization}}{1}}
\@writefile{lot}{\contentsline {table}{\numberline {2}{\ignorespaces Cache-l1 hit and miss times of different cache organization}}{1}}
\@writefile{lot}{\contentsline {table}{\numberline {3}{\ignorespaces Cache-l2 hit and miss times of different cache organization}}{2}}
\bibstyle{apalike}
\bibdata{sample}
\@writefile{lot}{\contentsline {table}{\numberline {4}{\ignorespaces Metrics of the epic-enc benchmark for different cache associative plan}}{3}}
